{
  "ecd.cdt.cloud": [
    "Other Tools"
  ],
  "ecd.che": [
    "Cloud IDE"
  ],
  "ecd.che.che4z": [
    "Extension Marketplace"
  ],
  "ecd.codewind": [
    "IDE-Agnostic Library"
  ],
  "ecd.dirigible": [
    "Service (IDEAAS)"
  ],
  "ecd.emfcloud": [
    "Cloud IDE"
  ],
  "ecd.glsp": [
    "Diagram Editors"
  ],
  "ecd.jkube": [
    "Cloud IDE"
  ],
  "ecd.openvsx": [
    "Extension Marketplace"
  ],
  "ecd.sprotty": [
    "Framework"
  ],
  "ecd.theia": [
    "Cloud IDE"
  ],
  "ecd.cft": [
    "Cloud IDE"
  ],
  "ecd.orion": [
    "Extension Marketplace"
  ]
}
